{
  "menus": [
    {
        "title": "Survey",
        "url": "\/admin\/survey",
        "permission": "access.roles",
        "icon": "fa fa-th",
        "allow_site":"all"
    },
	{
        "title": "SurveyMerge",
        "url": "\/admin\/survey-merge",
        "permission": "access.roles",
        "icon": "fa fa-plus",
        "allow_site":"all"
    },
	{
      "title": "Users",
      "url": "",
      "permission": "access.users",
      "icon": "fa fa-user",
      "allow_site":"all",
      "items": [
        {
          "title": "Users",
          "url": "\/admin\/users",
          "permission": "access.users",
          "icon": "fa fa-users",
          "allow_site":"all"
        },
        {
          "title": "Roles",
          "url": "\/admin\/roles",
          "permission": "access.roles",
          "icon": "fa fa-cubes",
          "allow_site":"all"
        }
		
      ]
    },
	{
        "title": "Categories",
        "url": "",
        "permission": "access.roles",
        "icon": "fa fa-list",
        "allow_site":"all",
		"items": [
        {
          "title": "List",
          "url": "\/admin\/categories",
          "permission": "access.users",
          "icon": "fa fa-list",
          "allow_site":"all"
        },
        {
          "title": "Create",
          "url": "\/admin\/categories\/create",
          "permission": "",
          "icon": "fa fa-plus",
          "allow_site":"all"
        }
		
      ]
		
    },
	{
        "title": "Branches",
        "url": "\/admin\/branches",
        "permission": "access.roles",
        "icon": "fa fa-handshake-o",
        "allow_site":"all"
    },
	{
      "title": "PrefillValues",
      "url": "",
      "permission": "",
      "icon": "fa fa-gear",
      "allow_site":"all",
      "items": [
        {
          "title": "Constants",
          "url": "\/admin\/constants",
          "permission": "access.users",
          "icon": "fa fa-pencil-square",
          "allow_site":"all"
        },
        {
          "title": "Location",
          "url": "\/admin\/locations",
          "permission": "",
          "icon": "fa fa-location-arrow",
          "allow_site":"all"
        },
		{
          "title": "check-list",
          "url": "\/admin\/check-list",
          "permission": "",
          "icon": "ft-check-square",
          "allow_site":"all"
        },
		{
          "title": "prefill-images",
          "url": "\/admin\/prefill-images",
          "permission": "",
          "icon": "ft-image",
          "allow_site":"all"
        }
		
      ]
    }
	
   
    

  ]
}